/* XPM */
static char * xtt_xpm[] = {
/* width height ncolors chars_per_pixel */
"31 27 5 1",
/* colors */
" 	c black",
".	c brown2",
"X	c darkslategrey",
"o	c wheat",
"O	c burlywood",
/* pixels */
"                               ",
" ............................  ",
" .  . .   . . . ............. X",
" . .   . .   .  ............. X",
" ............................ X",
"                              X",
" ooooooo oooooooooo ooooooooo X",
" o o o o oooooooooo ooooooooo X",
" oo   oo oooooooooo ooooooooo X",
" ooooooo oooooooooo ooooooooo X",
"                              X",
" OOOOOOO OOOOOOOOOO OOOOOOOOO X",
" OO O  O O O  O O O O OO  OOO X",
" O O O O O  O  O OO O  O  OOO X",
" OOOOOOO OOOOOOOOOO OOOOOOOOO X",
"                              X",
" ooooooo oooooooooo ooooooooo X",
" o  o oo oooooooooo ooooooooo X",
" o o o o oooooooooo ooooooooo X",
" ooooooo oooooooooo ooooooooo X",
"                              X",
" OOOOOOO OOOOOOOOOO OOOOOOOOO X",
" O   O O O O O O OO OO O O OO X",
" OO O OO O  O O OOO O   O O O X",
" OOOOOOO OOOOOOOOOO OOOOOOOOO X",
"                              X",
"  XXXXXXXXXXXXXXXXXXXXXXXXXXXXX"};
